data/150V tek00006.csv

TIME,CH2,,,Model,MSO4054,,,总时间,2s
-1.00E+00,1.84,,,Firmware Version,2.68,,,采样点间隔,0.0002
-1.00E+00,1.6,,,,,,,,
-1.00E+00,1.76,,,Waveform Type,ANALOG,,,,
-9.99E-01,1.84,,,Point Format,Y,,,,
-9.99E-01,1.76,,,Horizontal Units,s,,,,
-9.99E-01,1.92,,,Horizontal Scale,0.2,,,,
-9.99E-01,1.92,,,Horizontal Delay,0,,,,
-9.99E-01,1.76,,,Sample Interval,0.0002,,,,
-9.98E-01,1.84,,,Record Length,10000,,,,
-9.98E-01,1.84,,,Gating,0.0% to 100.0%,,,,
-9.98E-01,1.68,,,Probe Attenuation,10,,,,
-9.98E-01,2,,,Vertical Units,V,,,,
-9.98E-01,1.84,,,Vertical Offset,0,,,,
-9.97E-01,1.84,,,Vertical Scale,2,,,,
-9.97E-01,1.84,,,Vertical Position,-3.8,,,,
-9.97E-01,1.68,,,,,,,,
-9.97E-01,1.84,,,,,,,,
-9.97E-01,1.84,,,,,,,,
-9.96E-01,1.84,,,,,,,,
-9.96E-01,1.84,,,,,,,,
-9.96E-01,2,,,,,,,,
-9.96E-01,1.92,,,,,,,,
-9.96E-01,1.84,,,,,,,,
-9.95E-01,1.84,,,,,,,,
-9.95E-01,1.92,,,,,,,,
-9.95E-01,1.76,,,,,,,,
-9.95E-01,1.84,,,,,,,,
-9.95E-01,1.84,,,,,,,,
-9.94E-01,1.68,,,,,,,,
-9.94E-01,1.84,,,,,,,,
-9.94E-01,1.76,,,,,,,,
-9.94E-01,1.68,,,,,,,,
-9.94E-01,1.68,,,,,,,,
-9.93E-01,1.84,,,,,,,,
-9.93E-01,1.92,,,,,,,,
-9.93E-01,1.92,,,,,,,,
-9.93E-01,1.76,,,,,,,,
-9.93E-01,1.84,,,,,,,,
-9.92E-01,1.76,,,,,,,,
-9.92E-01,1.76,,,,,,,,
-9.92E-01,1.84,,,,,,,,
-9.92E-01,1.84,,,,,,,,
-9.92E-01,1.84,,,,,,,,
-9.91E-01,1.92,,,,,,,,
-9.91E-01,1.76,,,,,,,,
-9.91E-01,1.84,,,,,,,,
-9.91E-01,1.92,,,,,,,,
-9.91E-01,1.6,,,,,,,,
-9.90E-01,1.84,,,,,,,,
-9.90E-01,1.92,,,,,,,,
-9.90E-01,1.76,,,,,,,,
-9.90E-01,1.92,,,,,,,,
-9.90E-01,1.68,,,,,,,,
-9.89E-01,1.76,,,,,,,,
-9.89E-01,1.76,,,,,,,,
-9.89E-01,1.6,,,,,,,,
-9.89E-01,1.92,,,,,,,,
-9.89E-01,1.68,,,,,,,,
-9.88E-01,1.84,,,,,,,,
-9.88E-01,1.92,,,,,,,,
-9.88E-01,1.84,,,,,,,,
-9.88E-01,1.76,,,,,,,,
-9.88E-01,1.84,,,,,,,,
-9.87E-01,1.76,,,,,,,,
-9.87E-01,1.84,,,,,,,,
-9.87E-01,1.92,,,,,,,,
-9.87E-01,1.92,,,,,,,,
-9.87E-01,1.92,,,,,,,,
-9.86E-01,1.76,,,,,,,,
-9.86E-01,1.76,,,,,,,,
-9.86E-01,1.92,,,,,,,,
-9.86E-01,1.68,,,,,,,,
-9.86E-01,1.76,,,,,,,,
-9.85E-01,1.92,,,,,,,,
-9.85E-01,1.84,,,,,,,,
-9.85E-01,2.16,,,,,,,,
-9.85E-01,1.76,,,,,,,,
-9.85E-01,1.68,,,,,,,,
-9.84E-01,1.76,,,,,,,,
-9.84E-01,1.68,,,,,,,,
-9.84E-01,1.84,,,,,,,,
-9.84E-01,1.84,,,,,,,,
-9.84E-01,1.84,,,,,,,,
-9.83E-01,1.76,,,,,,,,
-9.83E-01,1.6,,,,,,,,
-9.83E-01,2,,,,,,,,
-9.83E-01,1.84,,,,,,,,
-9.83E-01,1.84,,,,,,,,
-9.82E-01,1.84,,,,,,,,
-9.82E-01,1.84,,,,,,,,
-9.82E-01,1.76,,,,,,,,
-9.82E-01,1.92,,,,,,,,
-9.82E-01,1.76,,,,,,,,
-9.81E-01,2.08,,,,,,,,
-9.81E-01,1.84,,,,,,,,
-9.81E-01,1.76,,,,,,,,
-9.81E-01,1.84,,,,,,,,
-9.81E-01,1.76,,,,,,,,
-9.80E-01,1.76,,,,,,,,
-9.80E-01,2,,,,,,,,
-9.80E-01,1.68,,,,,,,,
-9.80E-01,1.92,,,,,,,,
-9.80E-01,1.84,,,,,,,,
-9.79E-01,1.68,,,,,,,,
-9.79E-01,1.92,,,,,,,,
-9.79E-01,1.84,,,,,,,,
-9.79E-01,1.76,,,,,,,,
-9.79E-01,1.76,,,,,,,,
-9.78E-01,1.68,,,,,,,,
-9.78E-01,1.76,,,,,,,,
-9.78E-01,1.68,,,,,,,,
-9.78E-01,1.68,,,,,,,,
-9.78E-01,1.92,,,,,,,,
-9.77E-01,1.76,,,,,,,,
-9.77E-01,1.76,,,,,,,,
-9.77E-01,1.92,,,,,,,,
-9.77E-01,1.68,,,,,,,,
-9.77E-01,1.76,,,,,,,,
-9.76E-01,1.84,,,,,,,,
-9.76E-01,1.76,,,,,,,,
-9.76E-01,1.84,,,,,,,,
-9.76E-01,1.76,,,,,,,,
-9.76E-01,1.76,,,,,,,,
-9.75E-01,1.92,,,,,,,,
-9.75E-01,1.76,,,,,,,,
-9.75E-01,1.68,,,,,,,,
-9.75E-01,1.92,,,,,,,,
-9.75E-01,1.84,,,,,,,,
-9.74E-01,1.92,,,,,,,,
-9.74E-01,1.84,,,,,,,,
-9.74E-01,1.84,,,,,,,,
-9.74E-01,1.84,,,,,,,,
-9.74E-01,1.68,,,,,,,,
-9.73E-01,1.92,,,,,,,,
-9.73E-01,1.76,,,,,,,,
-9.73E-01,1.84,,,,,,,,
-9.73E-01,1.76,,,,,,,,
-9.73E-01,1.76,,,,,,,,
-9.72E-01,1.76,,,,,,,,
-9.72E-01,1.84,,,,,,,,
-9.72E-01,1.92,,,,,,,,
-9.72E-01,1.84,,,,,,,,
-9.72E-01,1.76,,,,,,,,
-9.71E-01,1.68,,,,,,,,
-9.71E-01,1.84,,,,,,,,
-9.71E-01,1.92,,,,,,,,
-9.71E-01,2,,,,,,,,
-9.71E-01,1.84,,,,,,,,
-9.70E-01,1.68,,,,,,,,
-9.70E-01,1.84,,,,,,,,
-9.70E-01,1.68,,,,,,,,
-9.70E-01,1.84,,,,,,,,
-9.70E-01,1.92,,,,,,,,
-9.69E-01,1.92,,,,,,,,
-9.69E-01,1.84,,,,,,,,
-9.69E-01,1.84,,,,,,,,
-9.69E-01,1.84,,,,,,,,
-9.69E-01,1.84,,,,,,,,
-9.68E-01,1.6,,,,,,,,
-9.68E-01,1.76,,,,,,,,
-9.68E-01,1.92,,,,,,,,
-9.68E-01,1.84,,,,,,,,
-9.68E-01,1.84,,,,,,,,
-9.67E-01,1.84,,,,,,,,
-9.67E-01,1.92,,,,,,,,
-9.67E-01,1.84,,,,,,,,
-9.67E-01,1.92,,,,,,,,
-9.67E-01,1.76,,,,,,,,
-9.66E-01,1.84,,,,,,,,
-9.66E-01,1.92,,,,,,,,
-9.66E-01,1.92,,,,,,,,
-9.66E-01,1.92,,,,,,,,
-9.66E-01,1.68,,,,,,,,
-9.65E-01,1.92,,,,,,,,
-9.65E-01,1.84,,,,,,,,
-9.65E-01,1.76,,,,,,,,
-9.65E-01,1.92,,,,,,,,
-9.65E-01,1.76,,,,,,,,
-9.64E-01,1.84,,,,,,,,
-9.64E-01,1.68,,,,,,,,
-9.64E-01,1.76,,,,,,,,
-9.64E-01,1.68,,,,,,,,
-9.64E-01,1.84,,,,,,,,
-9.63E-01,1.76,,,,,,,,
-9.63E-01,1.92,,,,,,,,
-9.63E-01,1.84,,,,,,,,
-9.63E-01,1.68,,,,,,,,
-9.63E-01,1.84,,,,,,,,
-9.62E-01,1.76,,,,,,,,
-9.62E-01,1.84,,,,,,,,
-9.62E-01,1.84,,,,,,,,
-9.62E-01,1.84,,,,,,,,
-9.62E-01,1.84,,,,,,,,
-9.61E-01,1.84,,,,,,,,
-9.61E-01,1.76,,,,,,,,
-9.61E-01,1.84,,,,,,,,
-9.61E-01,1.76,,,,,,,,
-9.61E-01,1.92,,,,,,,,
-9.60E-01,1.76,,,,,,,,
-9.60E-01,1.92,,,,,,,,
-9.60E-01,1.84,,,,,,,,
-9.60E-01,1.92,,,,,,,,
-9.60E-01,1.92,,,,,,,,
-9.59E-01,1.76,,,,,,,,
-9.59E-01,1.92,,,,,,,,
-9.59E-01,1.84,,,,,,,,
-9.59E-01,1.84,,,,,,,,
-9.59E-01,1.76,,,,,,,,
-9.58E-01,2,,,,,,,,
-9.58E-01,1.84,,,,,,,,
-9.58E-01,1.92,,,,,,,,
-9.58E-01,1.76,,,,,,,,
-9.58E-01,1.84,,,,,,,,
-9.57E-01,1.84,,,,,,,,
-9.57E-01,1.76,,,,,,,,
-9.57E-01,1.84,,,,,,,,
-9.57E-01,1.92,,,,,,,,
-9.57E-01,1.84,,,,,,,,
-9.56E-01,1.76,,,,,,,,
-9.56E-01,1.84,,,,,,,,
-9.56E-01,2,,,,,,,,
-9.56E-01,1.68,,,,,,,,
-9.56E-01,1.84,,,,,,,,
-9.55E-01,1.76,,,,,,,,
-9.55E-01,1.76,,,,,,,,
-9.55E-01,1.84,,,,,,,,
-9.55E-01,1.6,,,,,,,,
-9.55E-01,1.84,,,,,,,,
-9.54E-01,1.92,,,,,,,,
-9.54E-01,1.84,,,,,,,,
-9.54E-01,1.68,,,,,,,,
-9.54E-01,2,,,,,,,,
-9.54E-01,1.92,,,,,,,,
-9.53E-01,1.68,,,,,,,,
-9.53E-01,1.68,,,,,,,,
-9.53E-01,1.84,,,,,,,,
-9.53E-01,1.84,,,,,,,,
-9.53E-01,1.84,,,,,,,,
-9.52E-01,1.84,,,,,,,,
-9.52E-01,1.84,,,,,,,,
-9.52E-01,1.84,,,,,,,,
-9.52E-01,1.84,,,,,,,,
-9.52E-01,1.84,,,,,,,,
-9.51E-01,1.6,,,,,,,,
-9.51E-01,1.68,,,,,,,,
-9.51E-01,1.76,,,,,,,,
-9.51E-01,1.92,,,,,,,,
-9.51E-01,1.76,,,,,,,,
-9.50E-01,1.84,,,,,,,,
-9.50E-01,1.84,,,,,,,,
-9.50E-01,1.84,,,,,,,,
-9.50E-01,1.84,,,,,,,,
-9.50E-01,1.84,,,,,,,,
-9.49E-01,1.92,,,,,,,,
-9.49E-01,1.76,,,,,,,,
-9.49E-01,2,,,,,,,,
-9.49E-01,1.84,,,,,,,,
-9.49E-01,1.76,,,,,,,,
-9.48E-01,1.92,,,,,,,,
-9.48E-01,1.84,,,,,,,,
-9.48E-01,2,,,,,,,,
-9.48E-01,1.84,,,,,,,,
-9.48E-01,1.84,,,,,,,,
-9.47E-01,1.76,,,,,,,,
-9.47E-01,1.76,,,,,,,,
-9.47E-01,1.84,,,,,,,,
-9.47E-01,1.68,,,,,,,,
-9.47E-01,1.76,,,,,,,,
-9.46E-01,2,,,,,,,,
-9.46E-01,1.6,,,,,,,,
-9.46E-01,1.92,,,,,,,,
-9.46E-01,2,,,,,,,,
-9.46E-01,1.76,,,,,,,,
-9.45E-01,1.92,,,,,,,,
-9.45E-01,1.68,,,,,,,,
-9.45E-01,1.68,,,,,,,,
-9.45E-01,1.92,,,,,,,,
-9.45E-01,1.76,,,,,,,,
-9.44E-01,1.92,,,,,,,,
-9.44E-01,1.76,,,,,,,,
-9.44E-01,1.76,,,,,,,,
-9.44E-01,1.84,,,,,,,,
-9.44E-01,1.76,,,,,,,,
-9.43E-01,1.76,,,,,,,,
-9.43E-01,1.84,,,,,,,,
-9.43E-01,1.92,,,,,,,,
-9.43E-01,1.84,,,,,,,,
-9.43E-01,1.84,,,,,,,,
-9.42E-01,1.84,,,,,,,,
-9.42E-01,1.84,,,,,,,,
-9.42E-01,1.84,,,,,,,,
-9.42E-01,1.84,,,,,,,,
-9.42E-01,2,,,,,,,,
-9.41E-01,1.68,,,,,,,,
-9.41E-01,1.76,,,,,,,,
-9.41E-01,1.84,,,,,,,,
-9.41E-01,1.6,,,,,,,,
-9.41E-01,1.92,,,,,,,,
-9.40E-01,1.76,,,,,,,,
-9.40E-01,1.76,,,,,,,,
-9.40E-01,1.92,,,,,,,,
-9.40E-01,1.76,,,,,,,,
-9.40E-01,1.84,,,,,,,,
-9.39E-01,1.84,,,,,,,,
-9.39E-01,1.68,,,,,,,,
-9.39E-01,1.84,,,,,,,,
-9.39E-01,1.76,,,,,,,,
-9.39E-01,1.92,,,,,,,,
-9.38E-01,1.84,,,,,,,,
-9.38E-01,1.92,,,,,,,,
-9.38E-01,1.84,,,,,,,,
-9.38E-01,1.92,,,,,,,,
-9.38E-01,1.68,,,,,,,,
-9.37E-01,1.76,,,,,,,,
-9.37E-01,1.84,,,,,,,,
-9.37E-01,1.84,,,,,,,,
-9.37E-01,1.92,,,,,,,,
-9.37E-01,1.68,,,,,,,,
-9.36E-01,1.76,,,,,,,,
-9.36E-01,1.84,,,,,,,,
-9.36E-01,1.68,,,,,,,,
-9.36E-01,1.84,,,,,,,,
-9.36E-01,1.92,,,,,,,,
-9.35E-01,1.92,,,,,,,,
-9.35E-01,1.84,,,,,,,,
-9.35E-01,1.92,,,,,,,,
-9.35E-01,1.92,,,,,,,,
-9.35E-01,1.84,,,,,,,,
-9.34E-01,1.92,,,,,,,,
-9.34E-01,1.84,,,,,,,,
-9.34E-01,1.84,,,,,,,,
-9.34E-01,2,,,,,,,,
-9.34E-01,2,,,,,,,,
-9.33E-01,1.84,,,,,,,,
-9.33E-01,1.84,,,,,,,,
-9.33E-01,1.84,,,,,,,,
-9.33E-01,1.76,,,,,,,,
-9.33E-01,1.92,,,,,,,,
-9.32E-01,1.84,,,,,,,,
-9.32E-01,1.76,,,,,,,,
-9.32E-01,2,,,,,,,,
-9.32E-01,1.84,,,,,,,,
-9.32E-01,1.76,,,,,,,,
-9.31E-01,1.84,,,,,,,,
-9.31E-01,1.84,,,,,,,,
-9.31E-01,1.84,,,,,,,,
-9.31E-01,1.84,,,,,,,,
-9.31E-01,1.84,,,,,,,,
-9.30E-01,1.84,,,,,,,,
-9.30E-01,1.76,,,,,,,,
-9.30E-01,1.92,,,,,,,,
-9.30E-01,1.84,,,,,,,,
-9.30E-01,1.68,,,,,,,,
-9.29E-01,1.92,,,,,,,,
-9.29E-01,1.84,,,,,,,,
-9.29E-01,1.84,,,,,,,,
-9.29E-01,1.92,,,,,,,,
-9.29E-01,1.6,,,,,,,,
-9.28E-01,1.68,,,,,,,,
-9.28E-01,1.84,,,,,,,,
-9.28E-01,1.76,,,,,,,,
-9.28E-01,1.92,,,,,,,,
-9.28E-01,2,,,,,,,,
-9.27E-01,1.76,,,,,,,,
-9.27E-01,1.92,,,,,,,,
-9.27E-01,1.76,,,,,,,,
-9.27E-01,1.76,,,,,,,,
-9.27E-01,1.76,,,,,,,,
-9.26E-01,1.76,,,,,,,,
-9.26E-01,1.84,,,,,,,,
-9.26E-01,1.84,,,,,,,,
-9.26E-01,1.84,,,,,,,,
-9.26E-01,1.84,,,,,,,,
-9.25E-01,1.84,,,,,,,,
-9.25E-01,1.76,,,,,,,,
-9.25E-01,1.84,,,,,,,,
-9.25E-01,1.76,,,,,,,,
-9.25E-01,1.92,,,,,,,,
-9.24E-01,1.84,,,,,,,,
-9.24E-01,1.76,,,,,,,,
-9.24E-01,1.84,,,,,,,,
-9.24E-01,1.76,,,,,,,,
-9.24E-01,1.76,,,,,,,,
-9.23E-01,1.76,,,,,,,,
-9.23E-01,1.76,,,,,,,,
-9.23E-01,1.84,,,,,,,,
-9.23E-01,1.84,,,,,,,,
-9.23E-01,2,,,,,,,,
-9.22E-01,1.92,,,,,,,,
-9.22E-01,1.76,,,,,,,,
-9.22E-01,1.76,,,,,,,,
-9.22E-01,1.84,,,,,,,,
-9.22E-01,1.76,,,,,,,,
-9.21E-01,1.84,,,,,,,,
-9.21E-01,2,,,,,,,,
-9.21E-01,1.84,,,,,,,,
-9.21E-01,2,,,,,,,,
-9.21E-01,1.76,,,,,,,,
-9.20E-01,1.76,,,,,,,,
-9.20E-01,1.76,,,,,,,,
-9.20E-01,1.84,,,,,,,,
-9.20E-01,1.76,,,,,,,,
-9.20E-01,1.84,,,,,,,,
-9.19E-01,1.84,,,,,,,,
-9.19E-01,1.92,,,,,,,,
-9.19E-01,1.6,,,,,,,,
-9.19E-01,1.76,,,,,,,,
-9.19E-01,1.92,,,,,,,,
-9.18E-01,1.68,,,,,,,,
-9.18E-01,1.84,,,,,,,,
-9.18E-01,1.84,,,,,,,,
-9.18E-01,1.68,,,,,,,,
-9.18E-01,1.76,,,,,,,,
-9.17E-01,1.76,,,,,,,,
-9.17E-01,1.76,,,,,,,,
-9.17E-01,1.92,,,,,,,,
-9.17E-01,1.84,,,,,,,,
-9.17E-01,1.84,,,,,,,,
-9.16E-01,1.76,,,,,,,,
-9.16E-01,1.76,,,,,,,,
-9.16E-01,1.84,,,,,,,,
-9.16E-01,1.84,,,,,,,,
-9.16E-01,1.76,,,,,,,,
-9.15E-01,1.68,,,,,,,,
-9.15E-01,1.76,,,,,,,,
-9.15E-01,1.92,,,,,,,,
-9.15E-01,1.84,,,,,,,,
-9.15E-01,1.84,,,,,,,,
-9.14E-01,1.92,,,,,,,,
-9.14E-01,1.84,,,,,,,,
-9.14E-01,1.76,,,,,,,,
-9.14E-01,1.76,,,,,,,,
-9.14E-01,1.84,,,,,,,,
-9.13E-01,1.92,,,,,,,,
-9.13E-01,1.92,,,,,,,,
-9.13E-01,1.76,,,,,,,,
-9.13E-01,1.84,,,,,,,,
-9.13E-01,1.76,,,,,,,,
-9.12E-01,1.76,,,,,,,,
-9.12E-01,1.92,,,,,,,,
-9.12E-01,1.84,,,,,,,,
-9.12E-01,1.92,,,,,,,,
-9.12E-01,1.76,,,,,,,,
-9.11E-01,1.76,,,,,,,,
-9.11E-01,1.84,,,,,,,,
-9.11E-01,1.76,,,,,,,,
-9.11E-01,1.84,,,,,,,,
-9.11E-01,1.84,,,,,,,,
-9.10E-01,1.84,,,,,,,,
-9.10E-01,1.84,,,,,,,,
-9.10E-01,1.92,,,,,,,,
-9.10E-01,1.84,,,,,,,,
-9.10E-01,1.76,,,,,,,,
-9.09E-01,1.76,,,,,,,,
-9.09E-01,1.84,,,,,,,,
-9.09E-01,1.92,,,,,,,,
-9.09E-01,1.76,,,,,,,,
-9.09E-01,1.76,,,,,,,,
-9.08E-01,1.76,,,,,,,,
-9.08E-01,1.84,,,,,,,,
-9.08E-01,1.92,,,,,,,,
-9.08E-01,1.68,,,,,,,,
-9.08E-01,1.6,,,,,,,,
-9.07E-01,1.84,,,,,,,,
-9.07E-01,2,,,,,,,,
-9.07E-01,1.92,,,,,,,,
-9.07E-01,1.84,,,,,,,,
-9.07E-01,1.76,,,,,,,,
-9.06E-01,1.68,,,,,,,,
-9.06E-01,1.76,,,,,,,,
-9.06E-01,1.84,,,,,,,,
-9.06E-01,1.92,,,,,,,,
-9.06E-01,1.84,,,,,,,,
-9.05E-01,1.76,,,,,,,,
-9.05E-01,1.76,,,,,,,,
-9.05E-01,1.76,,,,,,,,
-9.05E-01,1.76,,,,,,,,
-9.05E-01,1.76,,,,,,,,
-9.04E-01,1.76,,,,,,,,
-9.04E-01,1.76,,,,,,,,
-9.04E-01,1.84,,,,,,,,
-9.04E-01,1.92,,,,,,,,
-9.04E-01,1.68,,,,,,,,
-9.03E-01,1.92,,,,,,,,
-9.03E-01,1.84,,,,,,,,
-9.03E-01,1.76,,,,,,,,
-9.03E-01,2,,,,,,,,
-9.03E-01,1.92,,,,,,,,
-9.02E-01,1.92,,,,,,,,
-9.02E-01,2,,,,,,,,
-9.02E-01,1.92,,,,,,,,
-9.02E-01,1.92,,,,,,,,
-9.02E-01,1.92,,,,,,,,
-9.01E-01,1.84,,,,,,,,
-9.01E-01,1.76,,,,,,,,
-9.01E-01,1.76,,,,,,,,
-9.01E-01,2,,,,,,,,
-9.01E-01,1.84,,,,,,,,
-9.00E-01,1.84,,,,,,,,
-9.00E-01,1.76,,,,,,,,
-9.00E-01,1.84,,,,,,,,
-9.00E-01,1.92,,,,,,,,
-9.00E-01,1.84,,,,,,,,
-8.99E-01,1.76,,,,,,,,
-8.99E-01,1.84,,,,,,,,
-8.99E-01,1.92,,,,,,,,
-8.99E-01,2,,,,,,,,
-8.99E-01,1.76,,,,,,,,
-8.98E-01,1.84,,,,,,,,
-8.98E-01,1.92,,,,,,,,
-8.98E-01,1.68,,,,,,,,
-8.98E-01,2,,,,,,,,
-8.98E-01,1.76,,,,,,,,
-8.97E-01,1.84,,,,,,,,
-8.97E-01,1.76,,,,,,,,
-8.97E-01,1.76,,,,,,,,
-8.97E-01,1.84,,,,,,,,
-8.97E-01,1.84,,,,,,,,
-8.96E-01,1.92,,,,,,,,
-8.96E-01,1.84,,,,,,,,
-8.96E-01,1.92,,,,,,,,
-8.96E-01,1.92,,,,,,,,
-8.96E-01,1.76,,,,,,,,
-8.95E-01,1.84,,,,,,,,
-8.95E-01,1.84,,,,,,,,
-8.95E-01,1.84,,,,,,,,
-8.95E-01,1.84,,,,,,,,
-8.95E-01,1.84,,,,,,,,
-8.94E-01,1.76,,,,,,,,
-8.94E-01,2,,,,,,,,
-8.94E-01,1.76,,,,,,,,
-8.94E-01,1.84,,,,,,,,
-8.94E-01,1.76,,,,,,,,
-8.93E-01,1.92,,,,,,,,
-8.93E-01,1.76,,,,,,,,
-8.93E-01,1.84,,,,,,,,
-8.93E-01,1.76,,,,,,,,
-8.93E-01,1.76,,,,,,,,
-8.92E-01,1.84,,,,,,,,
-8.92E-01,1.84,,,,,,,,
-8.92E-01,1.84,,,,,,,,
-8.92E-01,1.92,,,,,,,,
-8.92E-01,1.76,,,,,,,,
-8.91E-01,1.92,,,,,,,,
-8.91E-01,1.92,,,,,,,,
-8.91E-01,1.84,,,,,,,,
-8.91E-01,1.92,,,,,,,,
-8.91E-01,1.84,,,,,,,,
-8.90E-01,1.84,,,,,,,,
-8.90E-01,2,,,,,,,,
-8.90E-01,1.76,,,,,,,,
-8.90E-01,1.92,,,,,,,,
-8.90E-01,1.92,,,,,,,,
-8.89E-01,1.84,,,,,,,,
-8.89E-01,1.92,,,,,,,,
-8.89E-01,1.84,,,,,,,,
-8.89E-01,1.84,,,,,,,,
-8.89E-01,1.84,,,,,,,,
-8.88E-01,1.84,,,,,,,,
-8.88E-01,2,,,,,,,,
-8.88E-01,1.92,,,,,,,,
-8.88E-01,1.84,,,,,,,,
-8.88E-01,1.84,,,,,,,,
-8.87E-01,2.08,,,,,,,,
-8.87E-01,1.84,,,,,,,,
-8.87E-01,2.4,,,,,,,,
-8.87E-01,1.84,,,,,,,,
-8.87E-01,1.92,,,,,,,,
-8.86E-01,1.92,,,,,,,,
-8.86E-01,1.76,,,,,,,,
-8.86E-01,1.84,,,,,,,,
-8.86E-01,1.76,,,,,,,,
-8.86E-01,1.76,,,,,,,,
-8.85E-01,1.84,,,,,,,,
-8.85E-01,1.84,,,,,,,,
-8.85E-01,1.92,,,,,,,,
-8.85E-01,1.84,,,,,,,,
-8.85E-01,1.68,,,,,,,,
-8.84E-01,1.92,,,,,,,,
-8.84E-01,1.76,,,,,,,,
-8.84E-01,1.84,,,,,,,,
-8.84E-01,1.84,,,,,,,,
-8.84E-01,1.76,,,,,,,,
-8.83E-01,1.84,,,,,,,,
-8.83E-01,1.76,,,,,,,,
-8.83E-01,1.76,,,,,,,,
-8.83E-01,2,,,,,,,,
-8.83E-01,1.68,,,,,,,,
-8.82E-01,1.84,,,,,,,,
-8.82E-01,2,,,,,,,,
-8.82E-01,1.76,,,,,,,,
-8.82E-01,1.84,,,,,,,,
-8.82E-01,1.76,,,,,,,,
-8.81E-01,1.84,,,,,,,,
-8.81E-01,1.76,,,,,,,,
-8.81E-01,1.76,,,,,,,,
-8.81E-01,1.92,,,,,,,,
-8.81E-01,2,,,,,,,,
-8.80E-01,1.84,,,,,,,,
-8.80E-01,1.84,,,,,,,,
-8.80E-01,1.92,,,,,,,,
-8.80E-01,1.68,,,,,,,,
-8.80E-01,2,,,,,,,,
-8.79E-01,1.76,,,,,,,,
-8.79E-01,2,,,,,,,,
-8.79E-01,2,,,,,,,,
-8.79E-01,1.92,,,,,,,,
-8.79E-01,1.84,,,,,,,,
-8.78E-01,1.92,,,,,,,,
-8.78E-01,1.76,,,,,,,,
-8.78E-01,1.76,,,,,,,,
-8.78E-01,2.08,,,,,,,,
-8.78E-01,1.84,,,,,,,,
-8.77E-01,2,,,,,,,,
-8.77E-01,1.68,,,,,,,,
-8.77E-01,1.84,,,,,,,,
-8.77E-01,1.84,,,,,,,,
-8.77E-01,1.76,,,,,,,,
-8.76E-01,2,,,,,,,,
-8.76E-01,1.84,,,,,,,,
-8.76E-01,2,,,,,,,,
-8.76E-01,1.92,,,,,,,,
-8.76E-01,1.84,,,,,,,,
-8.75E-01,1.84,,,,,,,,
-8.75E-01,1.76,,,,,,,,
-8.75E-01,1.76,,,,,,,,
-8.75E-01,1.76,,,,,,,,
-8.75E-01,1.76,,,,,,,,
-8.74E-01,1.84,,,,,,,,
-8.74E-01,2.08,,,,,,,,
-8.74E-01,1.76,,,,,,,,
-8.74E-01,1.84,,,,,,,,
-8.74E-01,1.76,,,,,,,,
-8.73E-01,1.84,,,,,,,,
-8.73E-01,2,,,,,,,,
-8.73E-01,1.76,,,,,,,,
-8.73E-01,1.84,,,,,,,,
-8.73E-01,1.68,,,,,,,,
-8.72E-01,1.68,,,,,,,,
-8.72E-01,1.84,,,,,,,,
-8.72E-01,1.84,,,,,,,,
-8.72E-01,1.76,,,,,,,,
-8.72E-01,1.76,,,,,,,,
-8.71E-01,1.84,,,,,,,,
-8.71E-01,1.84,,,,,,,,
-8.71E-01,1.92,,,,,,,,
-8.71E-01,1.84,,,,,,,,
-8.71E-01,1.84,,,,,,,,
-8.70E-01,1.76,,,,,,,,
-8.70E-01,1.6,,,,,,,,
-8.70E-01,1.84,,,,,,,,
-8.70E-01,1.92,,,,,,,,
-8.70E-01,1.76,,,,,,,,
-8.69E-01,1.92,,,,,,,,
-8.69E-01,1.76,,,,,,,,
-8.69E-01,1.84,,,,,,,,
-8.69E-01,1.76,,,,,,,,
-8.69E-01,1.6,,,,,,,,
-8.68E-01,1.92,,,,,,,,
-8.68E-01,1.84,,,,,,,,
-8.68E-01,1.84,,,,,,,,
-8.68E-01,2,,,,,,,,
-8.68E-01,1.76,,,,,,,,
-8.67E-01,1.84,,,,,,,,
-8.67E-01,1.76,,,,,,,,
-8.67E-01,1.68,,,,,,,,
-8.67E-01,1.84,,,,,,,,
-8.67E-01,2,,,,,,,,
-8.66E-01,1.92,,,,,,,,
-8.66E-01,2,,,,,,,,
-8.66E-01,1.76,,,,,,,,
-8.66E-01,2,,,,,,,,
-8.66E-01,1.68,,,,,,,,
-8.65E-01,1.76,,,,,,,,
-8.65E-01,1.84,,,,,,,,
-8.65E-01,1.84,,,,,,,,
-8.65E-01,1.84,,,,,,,,
-8.65E-01,2,,,,,,,,
-8.64E-01,1.68,,,,,,,,
-8.64E-01,1.84,,,,,,,,
-8.64E-01,1.84,,,,,,,,
-8.64E-01,1.68,,,,,,,,
-8.64E-01,1.76,,,,,,,,
-8.63E-01,1.92,,,,,,,,
-8.63E-01,1.84,,,,,,,,
-8.63E-01,2,,,,,,,,
-8.63E-01,1.68,,,,,,,,
-8.63E-01,1.76,,,,,,,,
-8.62E-01,1.84,,,,,,,,
-8.62E-01,1.68,,,,,,,,
-8.62E-01,1.92,,,,,,,,
-8.62E-01,1.84,,,,,,,,
-8.62E-01,1.84,,,,,,,,
-8.61E-01,2,,,,,,,,
-8.61E-01,1.6,,,,,,,,
-8.61E-01,1.76,,,,,,,,
-8.61E-01,1.92,,,,,,,,
-8.61E-01,1.6,,,,,,,,
-8.60E-01,1.76,,,,,,,,
-8.60E-01,1.76,,,,,,,,
-8.60E-01,1.84,,,,,,,,
-8.60E-01,1.92,,,,,,,,
-8.60E-01,1.76,,,,,,,,
-8.59E-01,1.84,,,,,,,,
-8.59E-01,1.76,,,,,,,,
-8.59E-01,1.84,,,,,,,,
-8.59E-01,1.84,,,,,,,,
-8.59E-01,1.76,,,,,,,,
-8.58E-01,1.92,,,,,,,,
-8.58E-01,1.76,,,,,,,,
-8.58E-01,1.68,,,,,,,,
-8.58E-01,1.76,,,,,,,,
-8.58E-01,1.84,,,,,,,,
-8.57E-01,1.84,,,,,,,,
-8.57E-01,1.84,,,,,,,,
-8.57E-01,1.84,,,,,,,,
-8.57E-01,1.92,,,,,,,,
-8.57E-01,1.92,,,,,,,,
-8.56E-01,1.84,,,,,,,,
-8.56E-01,1.76,,,,,,,,
-8.56E-01,1.76,,,,,,,,
-8.56E-01,1.76,,,,,,,,
-8.56E-01,1.84,,,,,,,,
-8.55E-01,1.92,,,,,,,,
-8.55E-01,1.92,,,,,,,,
-8.55E-01,1.76,,,,,,,,
-8.55E-01,1.68,,,,,,,,
-8.55E-01,1.92,,,,,,,,
-8.54E-01,1.92,,,,,,,,
-8.54E-01,1.68,,,,,,,,
-8.54E-01,1.92,,,,,,,,
-8.54E-01,1.84,,,,,,,,
-8.54E-01,1.76,,,,,,,,
-8.53E-01,1.92,,,,,,,,
-8.53E-01,1.76,,,,,,,,
-8.53E-01,1.76,,,,,,,,
-8.53E-01,1.92,,,,,,,,
-8.53E-01,1.76,,,,,,,,
-8.52E-01,1.92,,,,,,,,
-8.52E-01,1.84,,,,,,,,
-8.52E-01,1.76,,,,,,,,
-8.52E-01,1.92,,,,,,,,
-8.52E-01,1.68,,,,,,,,
-8.51E-01,1.84,,,,,,,,
-8.51E-01,1.84,,,,,,,,
-8.51E-01,1.84,,,,,,,,
-8.51E-01,1.84,,,,,,,,
-8.51E-01,1.92,,,,,,,,
-8.50E-01,1.84,,,,,,,,
-8.50E-01,1.76,,,,,,,,
-8.50E-01,1.84,,,,,,,,
-8.50E-01,1.84,,,,,,,,
-8.50E-01,1.76,,,,,,,,
-8.49E-01,1.92,,,,,,,,
-8.49E-01,1.92,,,,,,,,
-8.49E-01,1.92,,,,,,,,
-8.49E-01,1.84,,,,,,,,
-8.49E-01,1.92,,,,,,,,
-8.48E-01,1.84,,,,,,,,
-8.48E-01,1.76,,,,,,,,
-8.48E-01,1.84,,,,,,,,
-8.48E-01,2,,,,,,,,
-8.48E-01,1.76,,,,,,,,
-8.47E-01,1.68,,,,,,,,
-8.47E-01,1.68,,,,,,,,
-8.47E-01,1.68,,,,,,,,
-8.47E-01,1.76,,,,,,,,
-8.47E-01,1.68,,,,,,,,
-8.46E-01,1.92,,,,,,,,
-8.46E-01,1.76,,,,,,,,
-8.46E-01,1.92,,,,,,,,
-8.46E-01,1.76,,,,,,,,
-8.46E-01,1.68,,,,,,,,
-8.45E-01,1.92,,,,,,,,
-8.45E-01,1.76,,,,,,,,
-8.45E-01,1.84,,,,,,,,
-8.45E-01,1.84,,,,,,,,
-8.45E-01,1.92,,,,,,,,
-8.44E-01,1.84,,,,,,,,
-8.44E-01,1.92,,,,,,,,
-8.44E-01,1.84,,,,,,,,
-8.44E-01,1.92,,,,,,,,
-8.44E-01,1.76,,,,,,,,
-8.43E-01,1.84,,,,,,,,
-8.43E-01,1.92,,,,,,,,
-8.43E-01,1.76,,,,,,,,
-8.43E-01,1.92,,,,,,,,
-8.43E-01,1.84,,,,,,,,
-8.42E-01,1.68,,,,,,,,
-8.42E-01,1.92,,,,,,,,
-8.42E-01,1.76,,,,,,,,
-8.42E-01,1.84,,,,,,,,
-8.42E-01,1.84,,,,,,,,
-8.41E-01,2,,,,,,,,
-8.41E-01,1.92,,,,,,,,
-8.41E-01,1.76,,,,,,,,
-8.41E-01,1.92,,,,,,,,
-8.41E-01,1.84,,,,,,,,
-8.40E-01,1.84,,,,,,,,
-8.40E-01,1.76,,,,,,,,
-8.40E-01,1.76,,,,,,,,
-8.40E-01,1.92,,,,,,,,
-8.40E-01,1.92,,,,,,,,
-8.39E-01,1.92,,,,,,,,
-8.39E-01,1.76,,,,,,,,
-8.39E-01,1.76,,,,,,,,
-8.39E-01,1.84,,,,,,,,
-8.39E-01,1.68,,,,,,,,
-8.38E-01,1.84,,,,,,,,
-8.38E-01,1.92,,,,,,,,
-8.38E-01,1.92,,,,,,,,
-8.38E-01,1.92,,,,,,,,
-8.38E-01,1.68,,,,,,,,
-8.37E-01,1.84,,,,,,,,
-8.37E-01,1.92,,,,,,,,
-8.37E-01,1.92,,,,,,,,
-8.37E-01,1.92,,,,,,,,
-8.37E-01,1.84,,,,,,,,
-8.36E-01,1.92,,,,,,,,
-8.36E-01,1.76,,,,,,,,
-8.36E-01,1.76,,,,,,,,
-8.36E-01,1.76,,,,,,,,
-8.36E-01,2,,,,,,,,
-8.35E-01,1.92,,,,,,,,
-8.35E-01,1.76,,,,,,,,
-8.35E-01,1.84,,,,,,,,
-8.35E-01,1.92,,,,,,,,
-8.35E-01,1.84,,,,,,,,
-8.34E-01,1.84,,,,,,,,
-8.34E-01,1.84,,,,,,,,
-8.34E-01,1.76,,,,,,,,
-8.34E-01,1.68,,,,,,,,
-8.34E-01,1.84,,,,,,,,
-8.33E-01,1.76,,,,,,,,
-8.33E-01,1.84,,,,,,,,
-8.33E-01,1.84,,,,,,,,
-8.33E-01,1.76,,,,,,,,
-8.33E-01,1.84,,,,,,,,
-8.32E-01,1.92,,,,,,,,
-8.32E-01,1.84,,,,,,,,
-8.32E-01,1.84,,,,,,,,
-8.32E-01,2,,,,,,,,
-8.32E-01,1.6,,,,,,,,
-8.31E-01,1.84,,,,,,,,
-8.31E-01,1.92,,,,,,,,
-8.31E-01,1.76,,,,,,,,
-8.31E-01,2,,,,,,,,
-8.31E-01,1.84,,,,,,,,
-8.30E-01,1.76,,,,,,,,
-8.30E-01,1.84,,,,,,,,
-8.30E-01,1.76,,,,,,,,
-8.30E-01,1.84,,,,,,,,
-8.30E-01,1.84,,,,,,,,
-8.29E-01,1.84,,,,,,,,
-8.29E-01,2,,,,,,,,
-8.29E-01,1.92,,,,,,,,
-8.29E-01,1.76,,,,,,,,
-8.29E-01,1.76,,,,,,,,
-8.28E-01,1.68,,,,,,,,
-8.28E-01,1.92,,,,,,,,
-8.28E-01,1.76,,,,,,,,
-8.28E-01,1.68,,,,,,,,
-8.28E-01,1.84,,,,,,,,
-8.27E-01,1.92,,,,,,,,
