data/150V tek00009.csv

TIME,CH2,,Model,MSO4054
-2.00E+00,1.36,,Firmware Version,2.68
-2.00E+00,1.44,,,
-2.00E+00,1.36,,Waveform Type,ANALOG
-2.00E+00,1.52,,Point Format,Y
-2.00E+00,1.6,,Horizontal Units,s
-2.00E+00,1.52,,Horizontal Scale,0.4
-2.00E+00,1.44,,Horizontal Delay,0
-2.00E+00,1.36,,Sample Interval,0.0004
-2.00E+00,1.52,,Record Length,10000
-2.00E+00,1.44,,Gating,0.0% to 100.0%
-2.00E+00,1.68,,Probe Attenuation,10
-2.00E+00,1.44,,Vertical Units,V
-2.00E+00,1.6,,Vertical Offset,0
-1.99E+00,1.52,,Vertical Scale,2
-1.99E+00,1.68,,Vertical Position,-2.84
-1.99E+00,1.44,,,
-1.99E+00,1.52,,,
-1.99E+00,1.52,,,
-1.99E+00,1.52,,,
-1.99E+00,1.6,,,
-1.99E+00,1.6,,,
-1.99E+00,1.52,,,
-1.99E+00,1.6,,,
-1.99E+00,1.52,,,
-1.99E+00,1.44,,,
-1.99E+00,1.44,,,
-1.99E+00,1.52,,,
-1.99E+00,1.36,,,
-1.99E+00,1.52,,,
-1.99E+00,1.52,,,
-1.99E+00,1.52,,,
-1.99E+00,1.52,,,
-1.99E+00,1.44,,,
-1.99E+00,1.36,,,
-1.99E+00,1.6,,,
-1.99E+00,1.68,,,
-1.99E+00,1.6,,,
-1.99E+00,1.52,,,
-1.98E+00,1.52,,,
-1.98E+00,1.6,,,
-1.98E+00,1.6,,,
-1.98E+00,1.52,,,
-1.98E+00,1.44,,,
-1.98E+00,1.44,,,
-1.98E+00,1.44,,,
-1.98E+00,1.6,,,
-1.98E+00,1.44,,,
-1.98E+00,1.52,,,
-1.98E+00,1.68,,,
-1.98E+00,1.36,,,
-1.98E+00,1.52,,,
-1.98E+00,1.6,,,
-1.98E+00,1.6,,,
-1.98E+00,1.6,,,
-1.98E+00,1.52,,,
-1.98E+00,1.44,,,
-1.98E+00,1.44,,,
-1.98E+00,1.52,,,
-1.98E+00,1.52,,,
-1.98E+00,1.52,,,
-1.98E+00,1.52,,,
-1.98E+00,1.36,,,
-1.98E+00,1.6,,,
-1.97E+00,1.76,,,
-1.97E+00,1.52,,,
-1.97E+00,1.44,,,
-1.97E+00,1.52,,,
-1.97E+00,1.6,,,
-1.97E+00,1.6,,,
-1.97E+00,1.6,,,
-1.97E+00,1.52,,,
-1.97E+00,1.52,,,
-1.97E+00,1.68,,,
-1.97E+00,1.52,,,
-1.97E+00,1.52,,,
-1.97E+00,1.44,,,
-1.97E+00,1.6,,,
-1.97E+00,1.52,,,
-1.97E+00,1.2,,,
-1.97E+00,1.52,,,
-1.97E+00,1.68,,,
-1.97E+00,1.52,,,
-1.97E+00,1.44,,,
-1.97E+00,1.36,,,
-1.97E+00,1.52,,,
-1.97E+00,1.6,,,
-1.97E+00,1.6,,,
-1.97E+00,1.44,,,
-1.96E+00,1.44,,,
-1.96E+00,1.68,,,
-1.96E+00,1.6,,,
-1.96E+00,1.6,,,
-1.96E+00,1.44,,,
-1.96E+00,1.6,,,
-1.96E+00,1.52,,,
-1.96E+00,1.52,,,
-1.96E+00,1.6,,,
-1.96E+00,1.44,,,
-1.96E+00,1.52,,,
-1.96E+00,1.6,,,
-1.96E+00,1.44,,,
-1.96E+00,1.36,,,
-1.96E+00,1.44,,,
-1.96E+00,1.52,,,
-1.96E+00,1.6,,,
-1.96E+00,1.6,,,
-1.96E+00,1.68,,,
-1.96E+00,1.6,,,
-1.96E+00,1.6,,,
-1.96E+00,1.6,,,
-1.96E+00,1.44,,,
-1.96E+00,1.6,,,
-1.96E+00,1.44,,,
-1.95E+00,1.28,,,
-1.95E+00,1.52,,,
-1.95E+00,1.6,,,
-1.95E+00,1.6,,,
-1.95E+00,1.44,,,
-1.95E+00,1.44,,,
-1.95E+00,1.52,,,
-1.95E+00,1.52,,,
-1.95E+00,1.52,,,
-1.95E+00,1.52,,,
-1.95E+00,1.52,,,
-1.95E+00,1.52,,,
-1.95E+00,1.44,,,
-1.95E+00,1.6,,,
-1.95E+00,1.44,,,
-1.95E+00,1.6,,,
-1.95E+00,1.68,,,
-1.95E+00,1.6,,,
-1.95E+00,1.28,,,
-1.95E+00,1.44,,,
-1.95E+00,1.6,,,
-1.95E+00,1.52,,,
-1.95E+00,1.6,,,
-1.95E+00,1.36,,,
-1.95E+00,1.44,,,
-1.94E+00,1.44,,,
-1.94E+00,1.6,,,
-1.94E+00,1.36,,,
-1.94E+00,1.6,,,
-1.94E+00,1.6,,,
-1.94E+00,1.6,,,
-1.94E+00,1.6,,,
-1.94E+00,1.6,,,
-1.94E+00,1.44,,,
-1.94E+00,1.6,,,
-1.94E+00,1.52,,,
-1.94E+00,1.52,,,
-1.94E+00,1.52,,,
-1.94E+00,1.36,,,
-1.94E+00,1.52,,,
-1.94E+00,1.52,,,
-1.94E+00,1.44,,,
-1.94E+00,1.44,,,
-1.94E+00,1.6,,,
-1.94E+00,1.6,,,
-1.94E+00,1.6,,,
-1.94E+00,1.52,,,
-1.94E+00,1.6,,,
-1.94E+00,1.52,,,
-1.94E+00,1.6,,,
-1.93E+00,1.52,,,
-1.93E+00,1.6,,,
-1.93E+00,1.52,,,
-1.93E+00,1.68,,,
-1.93E+00,1.6,,,
-1.93E+00,1.44,,,
-1.93E+00,1.6,,,
-1.93E+00,1.6,,,
-1.93E+00,1.52,,,
-1.93E+00,1.52,,,
-1.93E+00,1.44,,,
-1.93E+00,1.44,,,
-1.93E+00,1.6,,,
-1.93E+00,1.52,,,
-1.93E+00,1.52,,,
-1.93E+00,1.44,,,
-1.93E+00,1.52,,,
-1.93E+00,1.52,,,
-1.93E+00,1.68,,,
-1.93E+00,1.44,,,
-1.93E+00,1.44,,,
-1.93E+00,1.6,,,
-1.93E+00,1.44,,,
-1.93E+00,1.52,,,
-1.93E+00,1.44,,,
-1.92E+00,1.44,,,
-1.92E+00,1.6,,,
-1.92E+00,1.52,,,
-1.92E+00,1.44,,,
-1.92E+00,1.52,,,
-1.92E+00,1.44,,,
-1.92E+00,1.44,,,
-1.92E+00,1.52,,,
-1.92E+00,1.52,,,
-1.92E+00,1.52,,,
-1.92E+00,1.6,,,
-1.92E+00,1.44,,,
-1.92E+00,1.52,,,
-1.92E+00,1.6,,,
-1.92E+00,1.44,,,
-1.92E+00,1.6,,,
-1.92E+00,1.44,,,
-1.92E+00,1.36,,,
-1.92E+00,1.44,,,
-1.92E+00,1.52,,,
-1.92E+00,1.6,,,
-1.92E+00,1.52,,,
-1.92E+00,1.52,,,
-1.92E+00,1.6,,,
-1.92E+00,1.6,,,
-1.91E+00,1.52,,,
-1.91E+00,1.52,,,
-1.91E+00,1.6,,,
-1.91E+00,1.52,,,
-1.91E+00,1.52,,,
-1.91E+00,1.44,,,
-1.91E+00,1.44,,,
-1.91E+00,1.6,,,
-1.91E+00,1.52,,,
-1.91E+00,1.6,,,
-1.91E+00,1.6,,,
-1.91E+00,1.68,,,
-1.91E+00,1.44,,,
-1.91E+00,1.36,,,
-1.91E+00,1.6,,,
-1.91E+00,1.68,,,
-1.91E+00,1.68,,,
-1.91E+00,1.44,,,
-1.91E+00,1.6,,,
-1.91E+00,1.52,,,
-1.91E+00,1.68,,,
-1.91E+00,1.52,,,
-1.91E+00,1.44,,,
-1.91E+00,1.44,,,
-1.91E+00,1.6,,,
-1.90E+00,1.52,,,
-1.90E+00,1.52,,,
-1.90E+00,1.44,,,
-1.90E+00,1.6,,,
-1.90E+00,1.6,,,
-1.90E+00,1.52,,,
-1.90E+00,1.44,,,
-1.90E+00,1.44,,,
-1.90E+00,1.52,,,
-1.90E+00,1.6,,,
-1.90E+00,1.52,,,
-1.90E+00,1.44,,,
-1.90E+00,1.52,,,
-1.90E+00,1.6,,,
-1.90E+00,1.52,,,
-1.90E+00,1.52,,,
-1.90E+00,1.52,,,
-1.90E+00,1.76,,,
-1.90E+00,1.52,,,
-1.90E+00,1.44,,,
-1.90E+00,1.52,,,
-1.90E+00,1.6,,,
-1.90E+00,1.6,,,
-1.90E+00,1.52,,,
-1.90E+00,1.52,,,
-1.89E+00,1.44,,,
-1.89E+00,1.52,,,
-1.89E+00,1.52,,,
-1.89E+00,1.6,,,
-1.89E+00,1.44,,,
-1.89E+00,1.6,,,
-1.89E+00,1.52,,,
-1.89E+00,1.52,,,
-1.89E+00,1.52,,,
-1.89E+00,1.36,,,
-1.89E+00,1.52,,,
-1.89E+00,1.52,,,
-1.89E+00,1.44,,,
-1.89E+00,1.44,,,
-1.89E+00,1.84,,,
-1.89E+00,1.6,,,
-1.89E+00,1.52,,,
-1.89E+00,1.44,,,
-1.89E+00,1.44,,,
-1.89E+00,1.6,,,
-1.89E+00,1.44,,,
-1.89E+00,1.52,,,
-1.89E+00,1.44,,,
-1.89E+00,1.44,,,
-1.89E+00,1.52,,,
-1.88E+00,1.6,,,
-1.88E+00,1.6,,,
-1.88E+00,1.52,,,
-1.88E+00,1.44,,,
-1.88E+00,1.44,,,
-1.88E+00,1.52,,,
-1.88E+00,1.52,,,
-1.88E+00,1.52,,,
-1.88E+00,1.6,,,
-1.88E+00,1.52,,,
-1.88E+00,1.44,,,
-1.88E+00,1.52,,,
-1.88E+00,1.6,,,
-1.88E+00,1.6,,,
-1.88E+00,1.44,,,
-1.88E+00,1.28,,,
-1.88E+00,1.6,,,
-1.88E+00,1.68,,,
-1.88E+00,1.52,,,
-1.88E+00,1.44,,,
-1.88E+00,1.44,,,
-1.88E+00,1.6,,,
-1.88E+00,1.68,,,
-1.88E+00,1.52,,,
-1.88E+00,1.28,,,
-1.87E+00,1.52,,,
-1.87E+00,1.6,,,
-1.87E+00,1.6,,,
-1.87E+00,1.52,,,
-1.87E+00,1.28,,,
-1.87E+00,1.52,,,
-1.87E+00,1.68,,,
-1.87E+00,1.52,,,
-1.87E+00,1.44,,,
-1.87E+00,1.6,,,
-1.87E+00,1.6,,,
-1.87E+00,1.36,,,
-1.87E+00,1.6,,,
-1.87E+00,1.44,,,
-1.87E+00,1.52,,,
-1.87E+00,1.44,,,
-1.87E+00,1.52,,,
-1.87E+00,1.28,,,
-1.87E+00,1.44,,,
-1.87E+00,1.52,,,
-1.87E+00,1.52,,,
-1.87E+00,1.36,,,
-1.87E+00,1.52,,,
-1.87E+00,1.52,,,
-1.87E+00,1.6,,,
-1.86E+00,1.6,,,
-1.86E+00,1.36,,,
-1.86E+00,1.52,,,
-1.86E+00,1.52,,,
-1.86E+00,1.6,,,
-1.86E+00,1.52,,,
-1.86E+00,1.44,,,
-1.86E+00,1.52,,,
-1.86E+00,1.52,,,
-1.86E+00,1.52,,,
-1.86E+00,1.44,,,
-1.86E+00,1.6,,,
-1.86E+00,1.52,,,
-1.86E+00,1.44,,,
-1.86E+00,1.44,,,
-1.86E+00,1.6,,,
-1.86E+00,1.44,,,
-1.86E+00,1.52,,,
-1.86E+00,1.52,,,
-1.86E+00,1.52,,,
-1.86E+00,1.6,,,
-1.86E+00,1.52,,,
-1.86E+00,1.52,,,
-1.86E+00,1.36,,,
-1.86E+00,1.6,,,
-1.85E+00,1.44,,,
-1.85E+00,1.52,,,
-1.85E+00,1.6,,,
-1.85E+00,1.52,,,
-1.85E+00,1.52,,,
-1.85E+00,1.52,,,
-1.85E+00,1.6,,,
-1.85E+00,1.44,,,
-1.85E+00,1.44,,,
-1.85E+00,1.36,,,
-1.85E+00,1.44,,,
-1.85E+00,1.52,,,
-1.85E+00,1.6,,,
-1.85E+00,1.6,,,
-1.85E+00,1.52,,,
-1.85E+00,1.52,,,
-1.85E+00,1.84,,,
-1.85E+00,1.6,,,
-1.85E+00,1.6,,,
-1.85E+00,1.36,,,
-1.85E+00,1.44,,,
-1.85E+00,1.52,,,
-1.85E+00,1.52,,,
-1.85E+00,1.52,,,
-1.85E+00,1.52,,,
-1.84E+00,1.52,,,
-1.84E+00,1.68,,,
-1.84E+00,1.52,,,
-1.84E+00,1.6,,,
-1.84E+00,1.68,,,
-1.84E+00,1.44,,,
-1.84E+00,1.6,,,
-1.84E+00,1.52,,,
-1.84E+00,1.52,,,
-1.84E+00,1.44,,,
-1.84E+00,1.52,,,
-1.84E+00,1.44,,,
-1.84E+00,1.52,,,
-1.84E+00,1.44,,,
-1.84E+00,1.36,,,
-1.84E+00,1.68,,,
-1.84E+00,1.44,,,
-1.84E+00,1.44,,,
-1.84E+00,1.6,,,
-1.84E+00,1.52,,,
-1.84E+00,1.52,,,
-1.84E+00,1.6,,,
-1.84E+00,1.44,,,
-1.84E+00,1.44,,,
-1.84E+00,1.52,,,
-1.83E+00,1.68,,,
-1.83E+00,1.44,,,
-1.83E+00,1.36,,,
-1.83E+00,1.52,,,
-1.83E+00,1.76,,,
-1.83E+00,1.52,,,
-1.83E+00,1.44,,,
-1.83E+00,1.6,,,
-1.83E+00,1.68,,,
-1.83E+00,1.6,,,
-1.83E+00,1.6,,,
-1.83E+00,1.52,,,
-1.83E+00,1.52,,,
-1.83E+00,1.52,,,
-1.83E+00,1.44,,,
-1.83E+00,1.44,,,
-1.83E+00,1.44,,,
-1.83E+00,1.52,,,
-1.83E+00,1.6,,,
-1.83E+00,1.6,,,
-1.83E+00,1.68,,,
-1.83E+00,1.52,,,
-1.83E+00,1.44,,,
-1.83E+00,1.52,,,
-1.83E+00,1.44,,,
-1.82E+00,1.44,,,
-1.82E+00,1.68,,,
-1.82E+00,1.6,,,
-1.82E+00,1.52,,,
-1.82E+00,1.28,,,
-1.82E+00,1.6,,,
-1.82E+00,1.6,,,
-1.82E+00,1.76,,,
-1.82E+00,1.52,,,
-1.82E+00,1.44,,,
-1.82E+00,1.52,,,
-1.82E+00,1.6,,,
-1.82E+00,1.6,,,
-1.82E+00,1.44,,,
-1.82E+00,1.52,,,
-1.82E+00,1.6,,,
-1.82E+00,1.52,,,
-1.82E+00,1.52,,,
-1.82E+00,1.44,,,
-1.82E+00,1.52,,,
-1.82E+00,1.52,,,
-1.82E+00,1.52,,,
-1.82E+00,1.6,,,
-1.82E+00,1.52,,,
-1.82E+00,1.36,,,
-1.81E+00,1.6,,,
-1.81E+00,1.44,,,
-1.81E+00,1.44,,,
-1.81E+00,1.52,,,
-1.81E+00,1.6,,,
-1.81E+00,1.52,,,
-1.81E+00,1.44,,,
-1.81E+00,1.6,,,
-1.81E+00,1.6,,,
-1.81E+00,1.68,,,
-1.81E+00,1.36,,,
-1.81E+00,1.44,,,
-1.81E+00,1.52,,,
-1.81E+00,1.68,,,
-1.81E+00,1.52,,,
-1.81E+00,1.52,,,
-1.81E+00,1.52,,,
-1.81E+00,1.52,,,
-1.81E+00,1.44,,,
-1.81E+00,1.52,,,
-1.81E+00,1.44,,,
-1.81E+00,1.6,,,
-1.81E+00,1.52,,,
-1.81E+00,1.6,,,
-1.81E+00,1.6,,,
-1.80E+00,1.36,,,
-1.80E+00,1.44,,,
-1.80E+00,1.6,,,
-1.80E+00,1.52,,,
-1.80E+00,1.52,,,
-1.80E+00,1.52,,,
-1.80E+00,1.52,,,
-1.80E+00,1.36,,,
-1.80E+00,1.52,,,
-1.80E+00,1.6,,,
-1.80E+00,1.52,,,
-1.80E+00,1.6,,,
-1.80E+00,1.6,,,
-1.80E+00,1.6,,,
-1.80E+00,1.6,,,
-1.80E+00,1.6,,,
-1.80E+00,1.44,,,
-1.80E+00,1.44,,,
-1.80E+00,1.52,,,
-1.80E+00,1.52,,,
-1.80E+00,1.6,,,
-1.80E+00,1.6,,,
-1.80E+00,1.36,,,
-1.80E+00,1.36,,,
-1.80E+00,1.6,,,
-1.79E+00,1.6,,,
-1.79E+00,1.44,,,
-1.79E+00,1.6,,,
-1.79E+00,1.52,,,
-1.79E+00,1.44,,,
-1.79E+00,1.44,,,
-1.79E+00,1.52,,,
-1.79E+00,1.52,,,
-1.79E+00,1.52,,,
-1.79E+00,1.6,,,
-1.79E+00,1.44,,,
-1.79E+00,1.52,,,
-1.79E+00,1.6,,,
-1.79E+00,1.6,,,
-1.79E+00,1.52,,,
-1.79E+00,1.52,,,
-1.79E+00,1.6,,,
-1.79E+00,1.6,,,
-1.79E+00,1.6,,,
-1.79E+00,1.52,,,
-1.79E+00,1.52,,,
-1.79E+00,1.6,,,
-1.79E+00,1.52,,,
-1.79E+00,1.52,,,
-1.79E+00,1.52,,,
-1.78E+00,1.28,,,
-1.78E+00,1.52,,,
-1.78E+00,1.6,,,
-1.78E+00,1.44,,,
-1.78E+00,1.52,,,
-1.78E+00,1.52,,,
-1.78E+00,1.52,,,
-1.78E+00,1.36,,,
-1.78E+00,1.6,,,
-1.78E+00,1.52,,,
-1.78E+00,1.52,,,
-1.78E+00,1.44,,,
-1.78E+00,1.28,,,
-1.78E+00,1.36,,,
-1.78E+00,1.6,,,
-1.78E+00,1.6,,,
-1.78E+00,1.44,,,
-1.78E+00,1.52,,,
-1.78E+00,1.52,,,
-1.78E+00,1.68,,,
-1.78E+00,1.52,,,
-1.78E+00,1.36,,,
-1.78E+00,1.28,,,
-1.78E+00,1.52,,,
-1.78E+00,1.44,,,
-1.77E+00,1.52,,,
-1.77E+00,1.36,,,
-1.77E+00,1.44,,,
-1.77E+00,1.52,,,
-1.77E+00,1.44,,,
-1.77E+00,1.52,,,
-1.77E+00,1.6,,,
-1.77E+00,1.52,,,
-1.77E+00,1.52,,,
-1.77E+00,1.52,,,
-1.77E+00,1.52,,,
-1.77E+00,1.52,,,
-1.77E+00,1.52,,,
-1.77E+00,1.44,,,
-1.77E+00,1.6,,,
-1.77E+00,1.76,,,
-1.77E+00,1.6,,,
-1.77E+00,1.6,,,
-1.77E+00,1.28,,,
-1.77E+00,1.44,,,
-1.77E+00,1.52,,,
-1.77E+00,1.44,,,
-1.77E+00,1.44,,,
-1.77E+00,1.52,,,
-1.77E+00,1.52,,,
-1.76E+00,1.52,,,
-1.76E+00,1.6,,,
-1.76E+00,1.52,,,
-1.76E+00,1.44,,,
-1.76E+00,1.52,,,
-1.76E+00,1.6,,,
-1.76E+00,1.52,,,
-1.76E+00,1.52,,,
-1.76E+00,1.68,,,
-1.76E+00,1.6,,,
-1.76E+00,1.6,,,
-1.76E+00,1.52,,,
-1.76E+00,1.6,,,
-1.76E+00,1.68,,,
-1.76E+00,1.52,,,
-1.76E+00,1.44,,,
-1.76E+00,1.36,,,
-1.76E+00,1.6,,,
-1.76E+00,1.76,,,
-1.76E+00,1.52,,,
-1.76E+00,1.44,,,
-1.76E+00,1.52,,,
-1.76E+00,1.76,,,
-1.76E+00,1.6,,,
-1.76E+00,1.52,,,
-1.75E+00,1.2,,,
-1.75E+00,1.44,,,
-1.75E+00,1.6,,,
-1.75E+00,1.6,,,
-1.75E+00,1.6,,,
-1.75E+00,1.44,,,
-1.75E+00,1.6,,,
-1.75E+00,1.6,,,
-1.75E+00,1.6,,,
-1.75E+00,1.52,,,
-1.75E+00,1.76,,,
-1.75E+00,1.68,,,
-1.75E+00,1.44,,,
-1.75E+00,1.6,,,
-1.75E+00,1.6,,,
-1.75E+00,1.6,,,
-1.75E+00,1.36,,,
-1.75E+00,1.44,,,
-1.75E+00,1.52,,,
-1.75E+00,1.6,,,
-1.75E+00,1.52,,,
-1.75E+00,1.52,,,
-1.75E+00,1.36,,,
-1.75E+00,1.52,,,
-1.75E+00,1.68,,,
-1.74E+00,1.68,,,
-1.74E+00,1.52,,,
-1.74E+00,1.28,,,
-1.74E+00,1.52,,,
-1.74E+00,1.52,,,
-1.74E+00,1.36,,,
-1.74E+00,1.52,,,
-1.74E+00,1.36,,,
-1.74E+00,1.6,,,
-1.74E+00,1.52,,,
-1.74E+00,1.6,,,
-1.74E+00,1.52,,,
-1.74E+00,1.68,,,
-1.74E+00,1.6,,,
-1.74E+00,1.52,,,
-1.74E+00,1.6,,,
-1.74E+00,1.44,,,
-1.74E+00,1.6,,,
-1.74E+00,1.52,,,
-1.74E+00,1.52,,,
-1.74E+00,1.52,,,
-1.74E+00,1.44,,,
-1.74E+00,1.6,,,
-1.74E+00,1.6,,,
-1.74E+00,1.36,,,
-1.73E+00,1.44,,,
-1.73E+00,1.6,,,
-1.73E+00,1.52,,,
-1.73E+00,1.52,,,
-1.73E+00,1.52,,,
-1.73E+00,1.52,,,
-1.73E+00,1.6,,,
-1.73E+00,1.6,,,
-1.73E+00,1.52,,,
-1.73E+00,1.36,,,
-1.73E+00,1.6,,,
-1.73E+00,1.6,,,
-1.73E+00,1.6,,,
-1.73E+00,1.52,,,
-1.73E+00,1.52,,,
-1.73E+00,1.36,,,
-1.73E+00,1.52,,,
-1.73E+00,1.36,,,
-1.73E+00,1.44,,,
-1.73E+00,1.68,,,
-1.73E+00,1.68,,,
-1.73E+00,1.76,,,
-1.73E+00,1.6,,,
-1.73E+00,1.44,,,
-1.73E+00,1.6,,,
-1.72E+00,1.52,,,
-1.72E+00,1.36,,,
-1.72E+00,1.52,,,
-1.72E+00,1.68,,,
-1.72E+00,1.52,,,
-1.72E+00,1.68,,,
-1.72E+00,1.36,,,
-1.72E+00,1.44,,,
-1.72E+00,1.6,,,
-1.72E+00,1.6,,,
-1.72E+00,1.44,,,
-1.72E+00,1.44,,,
-1.72E+00,1.52,,,
-1.72E+00,1.6,,,
-1.72E+00,1.6,,,
-1.72E+00,1.52,,,
-1.72E+00,1.6,,,
-1.72E+00,1.52,,,
-1.72E+00,1.36,,,
-1.72E+00,1.6,,,
-1.72E+00,1.52,,,
-1.72E+00,1.52,,,
-1.72E+00,1.68,,,
-1.72E+00,1.44,,,
-1.72E+00,1.52,,,
-1.71E+00,1.68,,,
-1.71E+00,1.44,,,
-1.71E+00,1.52,,,
-1.71E+00,1.44,,,
-1.71E+00,1.44,,,
-1.71E+00,1.6,,,
-1.71E+00,1.6,,,
-1.71E+00,1.6,,,
-1.71E+00,1.44,,,
-1.71E+00,1.44,,,
-1.71E+00,1.44,,,
-1.71E+00,1.52,,,
-1.71E+00,1.44,,,
-1.71E+00,1.36,,,
-1.71E+00,1.44,,,
-1.71E+00,1.6,,,
-1.71E+00,1.52,,,
-1.71E+00,1.6,,,
-1.71E+00,1.44,,,
-1.71E+00,1.44,,,
-1.71E+00,1.44,,,
-1.71E+00,1.52,,,
-1.71E+00,1.6,,,
-1.71E+00,1.6,,,
-1.71E+00,1.6,,,
-1.70E+00,1.52,,,
-1.70E+00,1.52,,,
-1.70E+00,1.44,,,
-1.70E+00,1.6,,,
-1.70E+00,1.44,,,
-1.70E+00,1.36,,,
-1.70E+00,1.68,,,
-1.70E+00,1.6,,,
-1.70E+00,1.68,,,
-1.70E+00,1.6,,,
-1.70E+00,1.52,,,
-1.70E+00,1.52,,,
-1.70E+00,1.52,,,
-1.70E+00,1.44,,,
-1.70E+00,1.52,,,
-1.70E+00,1.28,,,
-1.70E+00,1.36,,,
-1.70E+00,1.52,,,
-1.70E+00,1.44,,,
-1.70E+00,1.52,,,
-1.70E+00,1.44,,,
-1.70E+00,1.52,,,
-1.70E+00,1.6,,,
-1.70E+00,1.52,,,
-1.70E+00,1.52,,,
-1.69E+00,1.6,,,
-1.69E+00,1.6,,,
-1.69E+00,1.52,,,
-1.69E+00,1.44,,,
-1.69E+00,1.68,,,
-1.69E+00,1.6,,,
-1.69E+00,1.52,,,
-1.69E+00,1.36,,,
-1.69E+00,1.6,,,
-1.69E+00,1.6,,,
-1.69E+00,1.44,,,
-1.69E+00,1.52,,,
-1.69E+00,1.44,,,
-1.69E+00,1.52,,,
-1.69E+00,1.76,,,
-1.69E+00,1.52,,,
-1.69E+00,1.36,,,
-1.69E+00,1.52,,,
-1.69E+00,1.44,,,
-1.69E+00,1.6,,,
-1.69E+00,1.52,,,
-1.69E+00,1.28,,,
-1.69E+00,1.36,,,
-1.69E+00,1.6,,,
-1.69E+00,1.52,,,
-1.68E+00,1.52,,,
-1.68E+00,1.52,,,
-1.68E+00,1.6,,,
-1.68E+00,1.6,,,
-1.68E+00,1.6,,,
-1.68E+00,1.44,,,
-1.68E+00,1.52,,,
-1.68E+00,1.44,,,
-1.68E+00,1.52,,,
-1.68E+00,1.44,,,
-1.68E+00,1.6,,,
-1.68E+00,1.68,,,
-1.68E+00,1.52,,,
-1.68E+00,1.36,,,
-1.68E+00,1.6,,,
-1.68E+00,1.52,,,
-1.68E+00,1.44,,,
-1.68E+00,1.52,,,
-1.68E+00,1.36,,,
-1.68E+00,1.28,,,
-1.68E+00,1.44,,,
-1.68E+00,1.68,,,
-1.68E+00,1.52,,,
-1.68E+00,1.36,,,
-1.68E+00,1.6,,,
-1.67E+00,1.52,,,
-1.67E+00,1.52,,,
-1.67E+00,1.36,,,
-1.67E+00,1.44,,,
-1.67E+00,1.52,,,
-1.67E+00,1.52,,,
-1.67E+00,1.44,,,
-1.67E+00,1.6,,,
-1.67E+00,1.52,,,
-1.67E+00,1.52,,,
-1.67E+00,1.6,,,
-1.67E+00,1.52,,,
-1.67E+00,1.6,,,
-1.67E+00,1.68,,,
-1.67E+00,1.6,,,
-1.67E+00,1.44,,,
-1.67E+00,1.44,,,
-1.67E+00,1.68,,,
-1.67E+00,1.6,,,
-1.67E+00,1.52,,,
-1.67E+00,1.52,,,
-1.67E+00,1.36,,,
-1.67E+00,1.52,,,
-1.67E+00,1.68,,,
-1.67E+00,1.6,,,
-1.66E+00,1.44,,,
-1.66E+00,1.44,,,
-1.66E+00,1.44,,,
-1.66E+00,1.76,,,
-1.66E+00,1.36,,,
-1.66E+00,1.6,,,
-1.66E+00,1.6,,,
-1.66E+00,1.52,,,
-1.66E+00,1.44,,,
-1.66E+00,1.44,,,
-1.66E+00,1.6,,,
-1.66E+00,1.52,,,
-1.66E+00,1.44,,,
-1.66E+00,1.36,,,
-1.66E+00,1.68,,,
-1.66E+00,1.68,,,
-1.66E+00,1.6,,,
-1.66E+00,1.52,,,
-1.66E+00,1.6,,,
-1.66E+00,1.6,,,
-1.66E+00,1.6,,,
-1.66E+00,1.52,,,
-1.66E+00,1.52,,,
-1.66E+00,1.52,,,
-1.66E+00,1.68,,,
-1.65E+00,1.44,,,
-1.65E+00,1.44,,,
-1.65E+00,1.44,,,
-1.65E+00,1.6,,,
-1.65E+00,1.6,,,
-1.65E+00,1.52,,,
-1.65E+00,1.44,,,
-1.65E+00,1.6,,,
-1.65E+00,1.36,,,
-1.65E+00,1.44,,,
-1.65E+00,1.36,,,
-1.65E+00,1.6,,,
-1.65E+00,1.6,,,
-1.65E+00,1.6,,,
-1.65E+00,1.44,,,
-1.65E+00,1.36,,,
-1.65E+00,1.52,,,
-1.65E+00,1.76,,,
-1.65E+00,1.6,,,
-1.65E+00,1.44,,,
-1.65E+00,1.36,,,
-1.65E+00,1.68,,,
-1.65E+00,1.6,,,
-1.65E+00,1.6,,,
-1.65E+00,1.44,,,
-1.64E+00,0.96,,,
-1.64E+00,1.44,,,
-1.64E+00,1.52,,,
-1.64E+00,1.44,,,
-1.64E+00,1.52,,,
-1.64E+00,1.52,,,
-1.64E+00,1.52,,,
-1.64E+00,1.52,,,
-1.64E+00,1.36,,,
-1.64E+00,1.52,,,
-1.64E+00,1.52,,,
-1.64E+00,1.44,,,
-1.64E+00,1.36,,,
-1.64E+00,1.52,,,
-1.64E+00,1.6,,,
-1.64E+00,1.6,,,
-1.64E+00,1.52,,,
-1.64E+00,1.36,,,
-1.64E+00,1.44,,,
-1.64E+00,1.68,,,
-1.64E+00,1.52,,,
-1.64E+00,1.44,,,
-1.64E+00,1.44,,,
-1.64E+00,1.68,,,
-1.64E+00,1.68,,,
-1.63E+00,1.52,,,
-1.63E+00,1.28,,,
-1.63E+00,1.52,,,
-1.63E+00,1.52,,,
-1.63E+00,1.6,,,
-1.63E+00,1.44,,,
-1.63E+00,1.36,,,
-1.63E+00,1.44,,,
-1.63E+00,1.6,,,
-1.63E+00,1.52,,,
-1.63E+00,1.52,,,
-1.63E+00,1.52,,,
-1.63E+00,1.6,,,
-1.63E+00,1.52,,,
-1.63E+00,1.44,,,
-1.63E+00,1.76,,,
-1.63E+00,1.52,,,
-1.63E+00,1.52,,,
-1.63E+00,1.44,,,
-1.63E+00,1.44,,,
-1.63E+00,1.68,,,
-1.63E+00,1.52,,,
-1.63E+00,1.44,,,
-1.63E+00,1.36,,,
-1.63E+00,1.44,,,
-1.62E+00,1.6,,,
-1.62E+00,1.44,,,
-1.62E+00,1.6,,,
-1.62E+00,1.68,,,
-1.62E+00,1.6,,,
-1.62E+00,1.52,,,
-1.62E+00,1.44,,,
-1.62E+00,1.52,,,
-1.62E+00,1.36,,,
-1.62E+00,1.44,,,
-1.62E+00,1.52,,,
-1.62E+00,1.52,,,
-1.62E+00,1.44,,,
-1.62E+00,1.52,,,
-1.62E+00,1.44,,,
-1.62E+00,1.44,,,
-1.62E+00,1.36,,,
-1.62E+00,1.52,,,
-1.62E+00,1.68,,,
-1.62E+00,1.44,,,
-1.62E+00,1.44,,,
-1.62E+00,1.52,,,
-1.62E+00,1.6,,,
-1.62E+00,1.68,,,
-1.62E+00,1.52,,,
-1.61E+00,1.44,,,
-1.61E+00,1.6,,,
-1.61E+00,1.44,,,
-1.61E+00,1.76,,,
-1.61E+00,1.6,,,
-1.61E+00,1.52,,,
-1.61E+00,1.6,,,
-1.61E+00,1.6,,,
-1.61E+00,1.52,,,
-1.61E+00,1.52,,,
-1.61E+00,1.44,,,
-1.61E+00,1.52,,,
-1.61E+00,1.68,,,
-1.61E+00,1.6,,,
-1.61E+00,1.52,,,
-1.61E+00,1.6,,,
-1.61E+00,1.52,,,
-1.61E+00,1.44,,,
-1.61E+00,1.28,,,
-1.61E+00,1.6,,,
-1.61E+00,1.44,,,
-1.61E+00,1.52,,,
-1.61E+00,1.52,,,
-1.61E+00,1.44,,,
-1.61E+00,1.52,,,
-1.60E+00,1.52,,,
-1.60E+00,1.44,,,
-1.60E+00,1.6,,,
-1.60E+00,1.52,,,
-1.60E+00,1.6,,,
-1.60E+00,1.36,,,
-1.60E+00,1.6,,,
-1.60E+00,1.68,,,
-1.60E+00,1.76,,,
-1.60E+00,1.52,,,
-1.60E+00,1.52,,,
-1.60E+00,1.52,,,
-1.60E+00,1.44,,,
-1.60E+00,1.6,,,
-1.60E+00,1.6,,,
-1.60E+00,1.6,,,
-1.60E+00,1.6,,,
-1.60E+00,1.6,,,
-1.60E+00,1.44,,,
-1.60E+00,1.52,,,
-1.60E+00,1.44,,,
-1.60E+00,1.6,,,
-1.60E+00,1.6,,,
-1.60E+00,1.52,,,
-1.60E+00,1.44,,,
-1.59E+00,1.44,,,
-1.59E+00,1.6,,,
-1.59E+00,1.44,,,
-1.59E+00,1.44,,,
-1.59E+00,1.36,,,
-1.59E+00,1.52,,,
-1.59E+00,1.68,,,
-1.59E+00,1.52,,,
-1.59E+00,1.52,,,
-1.59E+00,1.6,,,
-1.59E+00,1.52,,,
-1.59E+00,1.68,,,
-1.59E+00,1.44,,,
-1.59E+00,1.6,,,
-1.59E+00,1.52,,,
-1.59E+00,1.44,,,
-1.59E+00,1.44,,,
-1.59E+00,1.52,,,
-1.59E+00,1.52,,,
-1.59E+00,1.52,,,
-1.59E+00,1.6,,,
-1.59E+00,1.52,,,
-1.59E+00,1.36,,,
-1.59E+00,1.44,,,
-1.59E+00,1.6,,,
-1.58E+00,1.44,,,
-1.58E+00,1.52,,,
-1.58E+00,1.52,,,
-1.58E+00,1.52,,,
-1.58E+00,1.68,,,
-1.58E+00,1.44,,,
-1.58E+00,1.36,,,
-1.58E+00,1.52,,,
-1.58E+00,1.76,,,
-1.58E+00,1.36,,,
-1.58E+00,1.44,,,
-1.58E+00,1.52,,,
-1.58E+00,1.52,,,
-1.58E+00,1.68,,,
-1.58E+00,1.6,,,
-1.58E+00,1.6,,,
-1.58E+00,1.36,,,
-1.58E+00,1.52,,,
-1.58E+00,1.6,,,
-1.58E+00,1.44,,,
-1.58E+00,1.52,,,
-1.58E+00,1.52,,,
-1.58E+00,1.52,,,
-1.58E+00,1.68,,,
-1.58E+00,1.44,,,
-1.57E+00,1.44,,,
-1.57E+00,1.52,,,
-1.57E+00,1.44,,,
-1.57E+00,1.52,,,
-1.57E+00,1.44,,,
-1.57E+00,1.52,,,
-1.57E+00,1.52,,,
-1.57E+00,1.52,,,
-1.57E+00,1.52,,,
-1.57E+00,1.6,,,
-1.57E+00,1.76,,,
-1.57E+00,1.52,,,
-1.57E+00,1.52,,,
-1.57E+00,1.52,,,
-1.57E+00,1.68,,,
-1.57E+00,1.6,,,
-1.57E+00,1.68,,,
-1.57E+00,1.44,,,
-1.57E+00,1.6,,,
-1.57E+00,1.52,,,
-1.57E+00,1.52,,,
-1.57E+00,1.52,,,
-1.57E+00,1.6,,,
-1.57E+00,1.6,,,
-1.57E+00,1.68,,,
-1.56E+00,1.68,,,
-1.56E+00,1.44,,,
-1.56E+00,1.44,,,
-1.56E+00,1.52,,,
-1.56E+00,1.44,,,
-1.56E+00,1.52,,,
-1.56E+00,1.68,,,
-1.56E+00,1.36,,,
-1.56E+00,1.52,,,
-1.56E+00,1.44,,,
-1.56E+00,1.36,,,
-1.56E+00,1.68,,,
-1.56E+00,1.6,,,
-1.56E+00,1.68,,,
-1.56E+00,1.44,,,
-1.56E+00,1.52,,,
-1.56E+00,1.44,,,
-1.56E+00,1.52,,,
-1.56E+00,1.52,,,
-1.56E+00,1.6,,,
-1.56E+00,1.44,,,
-1.56E+00,1.52,,,
-1.56E+00,1.44,,,
